counter.vcd
$date
	Tue Sep 19 19:55:12 2017
$end
$version
	Icarus Verilog
$end
$timescale
	1ps
$end
$scope module testDecoder $end
$var wire 1 ! A0A1 $end
$var wire 1 " A0nA1 $end
$var wire 1 # Sout0 $end
$var wire 1 $ Sout1 $end
$var wire 1 % Sout2 $end
$var wire 1 & Sout3 $end
$var wire 1 ' nA0A1 $end
$var wire 1 ( nA0nA1 $end
$var wire 1 ) naddress0 $end
$var wire 1 * naddress1 $end
$var wire 1 + out0 $end
$var wire 1 , out1 $end
$var wire 1 - out2 $end
$var wire 1 . out3 $end
$var reg 1 / addr0 $end
$var reg 1 0 addr1 $end
$var reg 1 1 enable $end
$scope module decoder $end
$var wire 1 2 address0 $end
$var wire 1 3 address1 $end
$var wire 1 4 enable $end
$var wire 1 + out0 $end
$var wire 1 , out1 $end
$var wire 1 - out2 $end
$var wire 1 . out3 $end
$upscope $end
$scope module structuraltest $end
$var wire 1 ! A0A1 $end
$var wire 1 " A0nA1 $end
$var wire 1 # Sout0 $end
$var wire 1 $ Sout1 $end
$var wire 1 % Sout2 $end
$var wire 1 & Sout3 $end
$var wire 1 2 address0 $end
$var wire 1 3 address1 $end
$var wire 1 4 enable $end
$var wire 1 ' nA0A1 $end
$var wire 1 ( nA0nA1 $end
$var wire 1 ) naddress0 $end
$var wire 1 * naddress1 $end
$upscope $end
$upscope $end
$enddefinitions $end
#0
$dumpvars
04
03
02
01
00
0/
0.
0-
0,
0+
z*
z)
x(
z'
z&
z%
z$
z#
z"
z!
$end
#50000
0&
0!
0%
0'
0$
0"
0#
1)
1*
#100000
1(
#1000000
1/
12
#1050000
0)
1"
#1100000
0(
#2000000
10
13
0/
02
#2050000
0*
1)
0"
#2100000
1'
#3000000
1/
12
#3050000
0)
1!
#3100000
0'
#4000000
1+
00
03
0/
02
11
14
#4050000
1*
1)
0!
1&
#4100000
1(
0&
#4150000
1#
#5000000
0+
1,
1/
12
#5050000
0)
1"
#5100000
0(
1$
#5150000
0#
#6000000
1-
0,
10
13
0/
02
#6050000
0*
1)
0"
#6100000
1'
0$
#6150000
1%
#7000000
0-
1.
1/
12
#7050000
0)
1!
#7100000
0'
1&
#7150000
0%
#8000000
0.
00
03
0/
02
01
04
#8050000
1*
1)
0!
0&
#8100000
1(
#9000000
1/
12
#9050000
0)
1"
#9100000
0(
#10000000
10
13
0/
02
#10050000
0*
1)
0"
#10100000
1'
#11000000
1/
12
#11050000
0)
1!
#11100000
0'
#12000000
1+
00
03
0/
02
11
14
#12050000
1*
1)
0!
1&
#12100000
1(
0&
#12150000
1#
#13000000
0+
1,
1/
12
#13050000
0)
1"
#13100000
0(
1$
#13150000
0#
#14000000
1-
0,
10
13
0/
02
#14050000
0*
1)
0"
#14100000
1'
0$
#14150000
1%
#15000000
0-
1.
1/
12
#15050000
0)
1!
#15100000
0'
1&
#15150000
0%
